{
	"info": {
		"_postman_id": "4d27235b-e6b1-4386-84e8-fb4efde40450",
		"name": "ApplaudoTestEJB",
		"schema": "https://schema.getpostman.com/json/collection/v2.1.0/collection.json"
	},
	"item": [
		{
			"name": "find_by_status_and_name",
			"protocolProfileBehavior": {
				"disableBodyPruning": true
			},
			"request": {
				"auth": {
					"type": "basic",
					"basic": [
						{
							"key": "password",
							"value": "password",
							"type": "string"
						},
						{
							"key": "username",
							"value": "user",
							"type": "string"
						}
					]
				},
				"method": "GET",
				"header": [],
				"body": {
					"mode": "formdata",
					"formdata": [
						{
							"key": "status",
							"value": "available",
							"type": "text"
						},
						{
							"key": "name",
							"value": "Producto 1",
							"type": "text"
						}
					]
				},
				"url": {
					"raw": "http://localhost:8081/v1/item",
					"protocol": "http",
					"host": [
						"localhost"
					],
					"port": "8081",
					"path": [
						"v1",
						"item"
					]
				}
			},
			"response": [
				{
					"name": "find_by_status_and_name-200",
					"originalRequest": {
						"method": "GET",
						"header": [],
						"url": {
							"raw": "http://localhost:8081/v1/item?status=available&name=pala",
							"protocol": "http",
							"host": [
								"localhost"
							],
							"port": "8081",
							"path": [
								"v1",
								"item"
							],
							"query": [
								{
									"key": "status",
									"value": "available"
								},
								{
									"key": "name",
									"value": "pala"
								}
							]
						}
					},
					"status": "OK",
					"code": 200,
					"_postman_previewlanguage": "json",
					"header": [
						{
							"key": "X-Content-Type-Options",
							"value": "nosniff"
						},
						{
							"key": "X-XSS-Protection",
							"value": "1; mode=block"
						},
						{
							"key": "Cache-Control",
							"value": "no-cache, no-store, max-age=0, must-revalidate"
						},
						{
							"key": "Pragma",
							"value": "no-cache"
						},
						{
							"key": "Expires",
							"value": "0"
						},
						{
							"key": "X-Frame-Options",
							"value": "SAMEORIGIN"
						},
						{
							"key": "Content-Type",
							"value": "application/json"
						},
						{
							"key": "Transfer-Encoding",
							"value": "chunked"
						},
						{
							"key": "Date",
							"value": "Thu, 24 Mar 2022 01:46:36 GMT"
						},
						{
							"key": "Keep-Alive",
							"value": "timeout=60"
						},
						{
							"key": "Connection",
							"value": "keep-alive"
						}
					],
					"cookie": [],
					"body": "[\n    {\n        \"itemId\": 3,\n        \"itemName\": \"Pala\",\n        \"itemBuyingPrice\": 45.8,\n        \"itemSellingPrice\": null,\n        \"itemEnteredByUser\": \"admin\",\n        \"itemEnteredDate\": \"2022-03-24T01:36:53.31\",\n        \"itemLastModifiedDate\": null,\n        \"itemLastModifiedByUser\": null,\n        \"itemStatus\": \"AVAILABLE\"\n    },\n    {\n        \"itemId\": 4,\n        \"itemName\": \"PALA\",\n        \"itemBuyingPrice\": 27.9,\n        \"itemSellingPrice\": null,\n        \"itemEnteredByUser\": \"user\",\n        \"itemEnteredDate\": \"2022-03-24T01:41:48.189\",\n        \"itemLastModifiedDate\": null,\n        \"itemLastModifiedByUser\": null,\n        \"itemStatus\": \"AVAILABLE\"\n    }\n]"
				}
			]
		},
		{
			"name": "save_item",
			"request": {
				"auth": {
					"type": "basic",
					"basic": [
						{
							"key": "username",
							"value": "user",
							"type": "string"
						},
						{
							"key": "password",
							"value": "password",
							"type": "string"
						}
					]
				},
				"method": "POST",
				"header": [],
				"body": {
					"mode": "raw",
					"raw": "{\n\t\"itemId\": 4,\n    \"itemName\": \"TALADRO\",\n\t\"itemBuyingPrice\": 27.87\n}",
					"options": {
						"raw": {
							"language": "json"
						}
					}
				},
				"url": {
					"raw": "http://localhost:8081/v1/item/",
					"protocol": "http",
					"host": [
						"localhost"
					],
					"port": "8081",
					"path": [
						"v1",
						"item",
						""
					]
				}
			},
			"response": [
				{
					"name": "200",
					"originalRequest": {
						"method": "POST",
						"header": [],
						"body": {
							"mode": "raw",
							"raw": "{\n\t\"itemId\": 5,\n    \"itemName\": \"Taladro\",\n\t\"itemBuyingPrice\": 21.356\n}",
							"options": {
								"raw": {
									"language": "json"
								}
							}
						},
						"url": {
							"raw": "http://localhost:8081/v1/item/",
							"protocol": "http",
							"host": [
								"localhost"
							],
							"port": "8081",
							"path": [
								"v1",
								"item",
								""
							]
						}
					},
					"status": "Created",
					"code": 201,
					"_postman_previewlanguage": "json",
					"header": [
						{
							"key": "X-Content-Type-Options",
							"value": "nosniff"
						},
						{
							"key": "X-XSS-Protection",
							"value": "1; mode=block"
						},
						{
							"key": "Cache-Control",
							"value": "no-cache, no-store, max-age=0, must-revalidate"
						},
						{
							"key": "Pragma",
							"value": "no-cache"
						},
						{
							"key": "Expires",
							"value": "0"
						},
						{
							"key": "X-Frame-Options",
							"value": "SAMEORIGIN"
						},
						{
							"key": "Content-Type",
							"value": "application/json"
						},
						{
							"key": "Transfer-Encoding",
							"value": "chunked"
						},
						{
							"key": "Date",
							"value": "Tue, 22 Mar 2022 15:51:50 GMT"
						},
						{
							"key": "Keep-Alive",
							"value": "timeout=60"
						},
						{
							"key": "Connection",
							"value": "keep-alive"
						}
					],
					"cookie": [],
					"body": "{\n    \"itemId\": 5,\n    \"itemName\": \"Taladro\",\n    \"itemBuyingPrice\": 21.4,\n    \"itemSellingPrice\": null,\n    \"itemEnteredByUser\": \"user\",\n    \"itemEnteredDate\": \"2022-03-22T09:51:50.938\",\n    \"itemLastModifiedDate\": null,\n    \"itemLastModifiedByUser\": null,\n    \"itemStatus\": \"AVAILABLE\"\n}"
				},
				{
					"name": "save_item-400",
					"originalRequest": {
						"method": "POST",
						"header": [],
						"body": {
							"mode": "raw",
							"raw": "{\n\t\"itemId\": 5,\n    \"itemName\": \"PAla\",\n\t\"itemBuyingPrice\": 87.09,\n    \"itemStatus\": \"SOLD\"\n}",
							"options": {
								"raw": {
									"language": "json"
								}
							}
						},
						"url": {
							"raw": "http://localhost:8081/v1/item/",
							"protocol": "http",
							"host": [
								"localhost"
							],
							"port": "8081",
							"path": [
								"v1",
								"item",
								""
							]
						}
					},
					"status": "Bad Request",
					"code": 400,
					"_postman_previewlanguage": "json",
					"header": [
						{
							"key": "X-Content-Type-Options",
							"value": "nosniff"
						},
						{
							"key": "X-XSS-Protection",
							"value": "1; mode=block"
						},
						{
							"key": "Cache-Control",
							"value": "no-cache, no-store, max-age=0, must-revalidate"
						},
						{
							"key": "Pragma",
							"value": "no-cache"
						},
						{
							"key": "Expires",
							"value": "0"
						},
						{
							"key": "X-Frame-Options",
							"value": "SAMEORIGIN"
						},
						{
							"key": "Content-Type",
							"value": "application/json"
						},
						{
							"key": "Transfer-Encoding",
							"value": "chunked"
						},
						{
							"key": "Date",
							"value": "Thu, 24 Mar 2022 01:43:07 GMT"
						},
						{
							"key": "Connection",
							"value": "close"
						}
					],
					"cookie": [],
					"body": "{\n    \"status\": \"ERROR\",\n    \"message\": \"Item can't save!\"\n}"
				}
			]
		},
		{
			"name": "find_by_id",
			"protocolProfileBehavior": {
				"disableBodyPruning": true
			},
			"request": {
				"auth": {
					"type": "basic",
					"basic": [
						{
							"key": "password",
							"value": "password",
							"type": "string"
						},
						{
							"key": "username",
							"value": "user",
							"type": "string"
						}
					]
				},
				"method": "GET",
				"header": [],
				"body": {
					"mode": "formdata",
					"formdata": []
				},
				"url": {
					"raw": "http://localhost:8081/v1/item/5",
					"protocol": "http",
					"host": [
						"localhost"
					],
					"port": "8081",
					"path": [
						"v1",
						"item",
						"5"
					]
				}
			},
			"response": [
				{
					"name": "findById-200",
					"originalRequest": {
						"method": "GET",
						"header": [],
						"url": {
							"raw": "http://localhost:8081/app/item/1",
							"protocol": "http",
							"host": [
								"localhost"
							],
							"port": "8081",
							"path": [
								"app",
								"item",
								"1"
							]
						}
					},
					"status": "OK",
					"code": 200,
					"_postman_previewlanguage": "json",
					"header": [
						{
							"key": "X-Content-Type-Options",
							"value": "nosniff"
						},
						{
							"key": "X-XSS-Protection",
							"value": "1; mode=block"
						},
						{
							"key": "Cache-Control",
							"value": "no-cache, no-store, max-age=0, must-revalidate"
						},
						{
							"key": "Pragma",
							"value": "no-cache"
						},
						{
							"key": "Expires",
							"value": "0"
						},
						{
							"key": "X-Frame-Options",
							"value": "SAMEORIGIN"
						},
						{
							"key": "Content-Type",
							"value": "application/json"
						},
						{
							"key": "Transfer-Encoding",
							"value": "chunked"
						},
						{
							"key": "Date",
							"value": "Mon, 21 Mar 2022 21:34:24 GMT"
						},
						{
							"key": "Keep-Alive",
							"value": "timeout=60"
						},
						{
							"key": "Connection",
							"value": "keep-alive"
						}
					],
					"cookie": [],
					"body": "{\n    \"itemId\": 1,\n    \"itemName\": \"Tenazás\",\n    \"itemBuyingPrice\": 21.4,\n    \"itemSellingPrice\": null,\n    \"itemEnteredByUser\": \"user\",\n    \"itemEnteredDate\": \"2022-03-21T15:33:58.362\",\n    \"itemLastModifiedDate\": null,\n    \"itemLastModifiedByUser\": null,\n    \"itemStatus\": \"AVAILABLE\"\n}"
				}
			]
		}
	]
}